Tasks and Inputs | Computational Movement Analysis: Patterns and Trends in Environmental Data
…
Now we want to calculate the mean distance of nMinus2, nMinus1, nPlus1, nPlus2 for each row. Since we want the mean value per Row, we have to explicitly specify this before mutate() with the function rowwise(). To remove this rowwise-grouping, we end the operation with ungroup().

Note that for the first two positions, we cannot calculate a stepMean since there is no Position n-2 for these positions. This is also true for the last to positions (lacking a position n+2).

sabi <- sabi %>%
  rowwise() %>%
  mutate(
    stepMean = mean(c(nMinus2, nMinus1,nPlus1,nPlus2))
  ) %>%
  ungroup() 

sabi
## # A tibble: 192 x 11
##    TierID TierName CollarID DatetimeUTC                E       N nMinus2 nMinus1
##    <chr>  <chr>       <dbl> <dttm>                 <dbl>   <dbl>   <dbl>   <dbl>
##  1 002A   Sabi        12275 2015-06-30 22:00:13 2569972.  1.21e6   NA      NA   
##  2 002A   Sabi        12275 2015-06-30 22:16:06 2569975.  1.21e6   NA     271.  
##  3 002A   Sabi        12275 2015-06-30 22:30:19 2570266.  1.21e6  573.    365.  
##  4 002A   Sabi        12275 2015-06-30 22:45:13 2570208.  1.21e6  361.     80.5 
##  5 002A   Sabi        12275 2015-06-30 23:00:10 2570247.  1.21e6  127.    186.  
##  6 002A   Sabi        12275 2015-06-30 23:15:17 2570512.  1.21e6  703.    524.  
##  7 002A   Sabi        12275 2015-06-30 23:30:38 2570684.  1.21e6  766.    247.  
##  8 002A   Sabi        12275 2015-06-30 23:45:16 2570526.  1.21e6  229.    167.  
##  9 002A   Sabi        12275 2015-07-01 00:00:10 2570532.  1.21e6  163.      9.33
## 10 002A   Sabi        12275 2015-07-01 00:15:14 2570530.  1.21e6    8.98   15.4 
## # ... with 182 more rows, and 3 more variables: nPlus1 <dbl>, nPlus2 <dbl>,
## #   stepMean <dbl>
…
rle_id <- function(vec){
  x <- rle(vec)$lengths
  as.factor(rep(seq_along(x), times=x))
  }

You can use the newly created function rle_id to assign unique IDs to subtrajectories (as shown below). Visualize the moving segments by colourizing them by segment_ID.
Then use segment_ID as a grouping variable to determine the segments duration and remove short segments (e.g. segments with a duration < 5 Minutes)

Commit your changes with a meaningful commit message.

caro60 <- caro60 %>%
  mutate(segment_id = rle_id(static))

caro60
## # A tibble: 200 x 9
##    TierID TierName CollarID DatetimeUTC                E       N stepMean static
##    <chr>  <chr>       <dbl> <dttm>                 <dbl>   <dbl>    <dbl> <lgl> 
##  1 010C   Caro        13973 2015-09-15 08:07:00 2570589.  1.21e6    NA    NA    
##  2 010C   Caro        13973 2015-09-15 08:08:00 2570573.  1.21e6    NA    NA    
##  3 010C   Caro        13973 2015-09-15 08:09:00 2570536.  1.21e6    NA    NA    
##  4 010C   Caro        13973 2015-09-15 08:10:00 2570518.  1.21e6    53.8  FALSE 
##  5 010C   Caro        13973 2015-09-15 08:11:00 2570499.  1.21e6    41.2  FALSE 
##  6 010C   Caro        13973 2015-09-15 08:12:00 2570489.  1.21e6    24.4  FALSE 
##  7 010C   Caro        13973 2015-09-15 08:13:00 2570482.  1.21e6    17.1  FALSE 
##  8 010C   Caro        13973 2015-09-15 08:14:00 2570481.  1.21e6    13.4  FALSE 
##  9 010C   Caro        13973 2015-09-15 08:15:00 2570486.  1.21e6     9.05 FALSE 
## 10 010C   Caro        13973 2015-09-15 08:16:00 2570490.  1.21e6    10.1  FALSE 
## # ... with 190 more rows, and 1 more variable: segment_id <fct>
…
